\relax 
\@writefile{lol}{\contentsline {lstlisting}{lab1/adder.vhd}{1}}
\@writefile{lol}{\contentsline {lstlisting}{lab1/adder\textunderscore tb.vhd}{2}}
\@writefile{lot}{\contentsline {table}{\numberline {1}{\ignorespaces The Truth table from the full adder simulation\relax }}{4}}
\@writefile{lol}{\contentsline {lstlisting}{lab1/adder.syr}{4}}
\@writefile{lol}{\contentsline {lstlisting}{lab1/adder.ucf}{4}}
