\relax 
\@writefile{toc}{\contentsline {section}{\numberline {0.1}Implementation of components}{2}}
\@writefile{toc}{\contentsline {subsection}{\numberline {0.1.1}VHDL code for adder}{2}}
\@writefile{lol}{\contentsline {lstlisting}{lab2/four\textunderscore bit\textunderscore adder.vhd}{2}}
\@writefile{toc}{\contentsline {subsection}{\numberline {0.1.2}VHDL code for testbench}{3}}
\@writefile{lol}{\contentsline {lstlisting}{lab2/four\textunderscore bit\textunderscore adder\textunderscore tb.vhd}{3}}
\@writefile{toc}{\contentsline {subsection}{\numberline {0.1.3}Simulation screenshot}{5}}
\@writefile{lof}{\contentsline {figure}{\numberline {1}{\ignorespaces Screenshot of counter\relax }}{6}}
\@writefile{toc}{\contentsline {section}{\numberline {0.2}Implementation of sequential elements}{7}}
\@writefile{toc}{\contentsline {subsection}{\numberline {0.2.1}VHDL for Circuit}{7}}
\@writefile{lol}{\contentsline {lstlisting}{lab2/task2/task2/task.vhd}{7}}
\@writefile{toc}{\contentsline {subsection}{\numberline {0.2.2}VHDL for testbench}{9}}
\@writefile{lol}{\contentsline {lstlisting}{lab2/task2/task2/counters\textunderscore tb.vhd}{9}}
\@writefile{toc}{\contentsline {subsection}{\numberline {0.2.3}Screenshots of simulation}{11}}
\@writefile{lof}{\contentsline {figure}{\numberline {2}{\ignorespaces properties of the four 4-bit counters\relax }}{12}}
\@writefile{toc}{\contentsline {subsection}{\numberline {0.2.4}HDL synthesis}{13}}
\@writefile{lol}{\contentsline {lstlisting}{lab2/task2/task2/task.syr}{13}}
\@writefile{toc}{\contentsline {section}{\numberline {0.3}Design of a 7 segment display controller}{14}}
\@writefile{toc}{\contentsline {subsection}{\numberline {0.3.1}VHDL circuit code}{14}}
\@writefile{lol}{\contentsline {lstlisting}{lab2/task3/seven\textunderscore seg\textunderscore counter/display\textunderscore controller.vhd}{14}}
\@writefile{toc}{\contentsline {subsubsection}{BCD counter (00-99)}{16}}
\@writefile{lol}{\contentsline {lstlisting}{lab2/task3/seven\textunderscore seg\textunderscore counter/two\textunderscore bit\textunderscore denary\textunderscore counter.vhd}{16}}
\@writefile{toc}{\contentsline {subsubsection}{Debouncer}{18}}
\@writefile{lol}{\contentsline {lstlisting}{lab2/task3/seven\textunderscore seg\textunderscore counter/debouncer.vhd}{18}}
\@writefile{toc}{\contentsline {subsubsection}{7 Segment Display Driver}{19}}
\@writefile{lol}{\contentsline {lstlisting}{lab2/task3/seven\textunderscore seg\textunderscore counter/seven\textunderscore seg\textunderscore decoder.vhd}{19}}
\@writefile{toc}{\contentsline {subsection}{\numberline {0.3.2}VHDL Testbenches code}{20}}
\@writefile{lol}{\contentsline {lstlisting}{lab2/task3/seven\textunderscore seg\textunderscore counter/display\textunderscore controller\textunderscore tb.vhd}{20}}
\@writefile{toc}{\contentsline {subsection}{\numberline {0.3.3}Screenshots of Testbenches}{22}}
\@writefile{toc}{\contentsline {subsubsection}{Initialization}{22}}
\@writefile{lof}{\contentsline {figure}{\numberline {3}{\ignorespaces Seven segment display pre Initialization\relax }}{22}}
\@writefile{toc}{\contentsline {subsubsection}{09-10 Carry}{22}}
\@writefile{lof}{\contentsline {figure}{\numberline {4}{\ignorespaces Seven segment display showing 09-10 transition\relax }}{22}}
\@writefile{toc}{\contentsline {subsubsection}{99-100 Carry}{23}}
\@writefile{lof}{\contentsline {figure}{\numberline {5}{\ignorespaces Seven segment display showing 99-00 transition\relax }}{23}}
\@writefile{toc}{\contentsline {subsubsection}{System Reset}{23}}
\@writefile{lof}{\contentsline {figure}{\numberline {6}{\ignorespaces Seven segment display showing system reset\relax }}{23}}
\@writefile{toc}{\contentsline {subsection}{\numberline {0.3.4}HDL Synthesis Report}{24}}
\@writefile{lol}{\contentsline {lstlisting}{lab2/task3/seven\textunderscore seg\textunderscore counter/display\textunderscore controller.syr}{24}}
\@writefile{lol}{\contentsline {lstlisting}{lab2/task3/seven\textunderscore seg\textunderscore counter/display\textunderscore controller.syr}{24}}
\@writefile{toc}{\contentsline {subsection}{\numberline {0.3.5}Deboucer Explanation}{26}}
\@writefile{toc}{\contentsline {subsubsection}{Circuit diagram}{26}}
\@writefile{lof}{\contentsline {figure}{\numberline {7}{\ignorespaces Schematic representation of debouncing circuit\relax }}{26}}
\@writefile{toc}{\contentsline {subsubsection}{Debouncer testbench}{26}}
\@writefile{lof}{\contentsline {figure}{\numberline {8}{\ignorespaces Debouncer operation\relax }}{26}}
